<define-tag pagetitle>DLA-785-1 wireless-regdb</define-tag>
<define-tag report_date>2017-1-16</define-tag>
<define-tag packages>wireless-regdb</define-tag>
<define-tag isvulnerable>yes</define-tag>
<define-tag fixed>yes</define-tag>
<define-tag fixed-section>no</define-tag>

#use wml::debian::security

