<define-tag pagetitle>DLA-925-1 kedpm</define-tag>
<define-tag report_date>2017-4-29</define-tag>
<define-tag secrefs>CVE-2017-8296 Bug#860817</define-tag>
<define-tag packages>kedpm</define-tag>
<define-tag isvulnerable>yes</define-tag>
<define-tag fixed>yes</define-tag>
<define-tag fixed-section>no</define-tag>

#use wml::debian::security

