<define-tag pagetitle>DSA-4505-1 nginx</define-tag>
<define-tag report_date>2019-8-22</define-tag>
<define-tag secrefs>CVE-2019-9511 CVE-2019-9513 CVE-2019-9516</define-tag>
<define-tag packages>nginx</define-tag>
<define-tag isvulnerable>yes</define-tag>
<define-tag fixed>yes</define-tag>
<define-tag fixed-section>no</define-tag>

#use wml::debian::security



</dl>
