<define-tag pagetitle>DLA-1684-1 systemd</define-tag>
<define-tag report_date>2019-2-19</define-tag>
<define-tag secrefs>CVE-2019-6454</define-tag>
<define-tag packages>systemd</define-tag>
<define-tag isvulnerable>yes</define-tag>
<define-tag fixed>yes</define-tag>
<define-tag fixed-section>no</define-tag>

#use wml::debian::security

