<define-tag pagetitle>DLA-1703-1 jackson-databind</define-tag>
<define-tag report_date>2019-3-4</define-tag>
<define-tag secrefs>CVE-2018-11307 CVE-2018-12022 CVE-2018-12023 CVE-2018-14718 CVE-2018-14719 CVE-2018-14720 CVE-2018-14721 CVE-2018-19360 CVE-2018-19361 CVE-2018-19362</define-tag>
<define-tag packages>jackson-databind</define-tag>
<define-tag isvulnerable>yes</define-tag>
<define-tag fixed>yes</define-tag>
<define-tag fixed-section>no</define-tag>

#use wml::debian::security

