<define-tag pagetitle>DLA-519-1 icedove</define-tag>
<define-tag report_date>2016-6-22</define-tag>
<define-tag secrefs>CVE-2016-2806</define-tag>
<define-tag packages>icedove</define-tag>
<define-tag isvulnerable>yes</define-tag>
<define-tag fixed>yes</define-tag>
<define-tag fixed-section>no</define-tag>

#use wml::debian::security

